{
    "response": {
        "status": "ok",
        "userTier": "developer",
        "total": 2490900,
        "startIndex": 1,
        "pageSize": 10,
        "currentPage": 1,
        "pages": 249090,
        "orderBy": "newest",
        "results": [
            {
                "id": "politics/live/2024/mar/20/rishi-sunak-pmqs-1922-committee-conservatives-labour-uk-politics-latest-updates",
                "type": "liveblog",
                "sectionId": "politics",
                "sectionName": "Politics",
                "webPublicationDate": "2024-03-20T12:20:37Z",
                "webTitle": "Rishi Sunak faces Keir Starmer at PMQs – UK politics live",
                "webUrl": "https://www.theguardian.com/politics/live/2024/mar/20/rishi-sunak-pmqs-1922-committee-conservatives-labour-uk-politics-latest-updates",
                "apiUrl": "https://content.guardianapis.com/politics/live/2024/mar/20/rishi-sunak-pmqs-1922-committee-conservatives-labour-uk-politics-latest-updates",
                "isHosted": false,
                "pillarId": "pillar/news",
                "pillarName": "News"
            },
            {
                "id": "world/live/2024/mar/20/europe-live-eu-pivotal-moment-says-european-council-president-before-summit",
                "type": "liveblog",
                "sectionId": "world",
                "sectionName": "World news",
                "webPublicationDate": "2024-03-20T12:18:40Z",
                "webTitle": "Europe live: Leo Varadkar to step down as prime minister of Ireland, say reports",
                "webUrl": "https://www.theguardian.com/world/live/2024/mar/20/europe-live-eu-pivotal-moment-says-european-council-president-before-summit",
                "apiUrl": "https://content.guardianapis.com/world/live/2024/mar/20/europe-live-eu-pivotal-moment-says-european-council-president-before-summit",
                "isHosted": false,
                "pillarId": "pillar/news",
                "pillarName": "News"
            },
            {
                "id": "world/2024/mar/20/tighter-security-laws-may-sap-yet-more-foreign-investment-from-hong-kong",
                "type": "article",
                "sectionId": "world",
                "sectionName": "World news",
                "webPublicationDate": "2024-03-20T12:18:12Z",
                "webTitle": "Tighter security laws may sap yet more foreign investment from Hong Kong",
                "webUrl": "https://www.theguardian.com/world/2024/mar/20/tighter-security-laws-may-sap-yet-more-foreign-investment-from-hong-kong",
                "apiUrl": "https://content.guardianapis.com/world/2024/mar/20/tighter-security-laws-may-sap-yet-more-foreign-investment-from-hong-kong",
                "isHosted": false,
                "pillarId": "pillar/news",
                "pillarName": "News"
            },
            {
                "id": "business/live/2024/mar/20/uk-inflation-drop-low-cost-of-living-bank-of-england-house-prices-business-live",
                "type": "liveblog",
                "sectionId": "business",
                "sectionName": "Business",
                "webPublicationDate": "2024-03-20T12:15:15Z",
                "webTitle": "UK inflation falls to 3.4%, but rents rise at record pace; HMRC halts plans to turn off tax helpline – business live",
                "webUrl": "https://www.theguardian.com/business/live/2024/mar/20/uk-inflation-drop-low-cost-of-living-bank-of-england-house-prices-business-live",
                "apiUrl": "https://content.guardianapis.com/business/live/2024/mar/20/uk-inflation-drop-low-cost-of-living-bank-of-england-house-prices-business-live",
                "isHosted": false,
                "pillarId": "pillar/news",
                "pillarName": "News"
            },
            {
                "id": "world/live/2024/mar/20/russia-ukraine-war-live-france-calls-russias-remarks-on-troops-disinformation-and-irresponsible",
                "type": "liveblog",
                "sectionId": "world",
                "sectionName": "World news",
                "webPublicationDate": "2024-03-20T12:13:51Z",
                "webTitle": "Russia-Ukraine war live: Ukraine receives first €4.5bn under new EU facility",
                "webUrl": "https://www.theguardian.com/world/live/2024/mar/20/russia-ukraine-war-live-france-calls-russias-remarks-on-troops-disinformation-and-irresponsible",
                "apiUrl": "https://content.guardianapis.com/world/live/2024/mar/20/russia-ukraine-war-live-france-calls-russias-remarks-on-troops-disinformation-and-irresponsible",
                "isHosted": false,
                "pillarId": "pillar/news",
                "pillarName": "News"
            },
            {
                "id": "us-news/2024/mar/20/first-thing-appeals-court-halts-strict-texas-immigration-law",
                "type": "article",
                "sectionId": "us-news",
                "sectionName": "US news",
                "webPublicationDate": "2024-03-20T12:02:37Z",
                "webTitle": "Appeals court halts strict Texas immigration law | First Thing",
                "webUrl": "https://www.theguardian.com/us-news/2024/mar/20/first-thing-appeals-court-halts-strict-texas-immigration-law",
                "apiUrl": "https://content.guardianapis.com/us-news/2024/mar/20/first-thing-appeals-court-halts-strict-texas-immigration-law",
                "isHosted": false,
                "pillarId": "pillar/news",
                "pillarName": "News"
            },
            {
                "id": "world/live/2024/mar/20/middle-east-crisis-live-blinken-due-in-region-for-truce-negotiations-as-us-calls-on-israel-to-increase-aid-to-gaza",
                "type": "liveblog",
                "sectionId": "world",
                "sectionName": "World news",
                "webPublicationDate": "2024-03-20T12:01:45Z",
                "webTitle": "Middle East crisis live: vital to get pause in fighting but Israel has to ‘get Hamas leaders out of Gaza’, says UK minister",
                "webUrl": "https://www.theguardian.com/world/live/2024/mar/20/middle-east-crisis-live-blinken-due-in-region-for-truce-negotiations-as-us-calls-on-israel-to-increase-aid-to-gaza",
                "apiUrl": "https://content.guardianapis.com/world/live/2024/mar/20/middle-east-crisis-live-blinken-due-in-region-for-truce-negotiations-as-us-calls-on-israel-to-increase-aid-to-gaza",
                "isHosted": false,
                "pillarId": "pillar/news",
                "pillarName": "News"
            },
            {
                "id": "books/2024/mar/20/where-to-start-with-buchi-emecheta",
                "type": "article",
                "sectionId": "books",
                "sectionName": "Books",
                "webPublicationDate": "2024-03-20T12:00:27Z",
                "webTitle": "Where to start with: Buchi Emecheta",
                "webUrl": "https://www.theguardian.com/books/2024/mar/20/where-to-start-with-buchi-emecheta",
                "apiUrl": "https://content.guardianapis.com/books/2024/mar/20/where-to-start-with-buchi-emecheta",
                "isHosted": false,
                "pillarId": "pillar/arts",
                "pillarName": "Arts"
            },
            {
                "id": "commentisfree/2024/mar/20/facebook-twitter-reddit-rubbish-ipo",
                "type": "article",
                "sectionId": "commentisfree",
                "sectionName": "Opinion",
                "webPublicationDate": "2024-03-20T12:00:27Z",
                "webTitle": "First it was Facebook, then Twitter. Is Reddit about to become rubbish too? | Hussein Kesvani",
                "webUrl": "https://www.theguardian.com/commentisfree/2024/mar/20/facebook-twitter-reddit-rubbish-ipo",
                "apiUrl": "https://content.guardianapis.com/commentisfree/2024/mar/20/facebook-twitter-reddit-rubbish-ipo",
                "isHosted": false,
                "pillarId": "pillar/opinion",
                "pillarName": "Opinion"
            },
            {
                "id": "tv-and-radio/2024/mar/20/bafta-tv-awards-2024-nominations-full-list",
                "type": "article",
                "sectionId": "tv-and-radio",
                "sectionName": "Television & radio",
                "webPublicationDate": "2024-03-20T12:00:26Z",
                "webTitle": "Bafta TV awards 2024 nominations: full list",
                "webUrl": "https://www.theguardian.com/tv-and-radio/2024/mar/20/bafta-tv-awards-2024-nominations-full-list",
                "apiUrl": "https://content.guardianapis.com/tv-and-radio/2024/mar/20/bafta-tv-awards-2024-nominations-full-list",
                "isHosted": false,
                "pillarId": "pillar/arts",
                "pillarName": "Arts"
            }
        ]
    }
}